sim/tb.vcd
$date
	Thu Apr 28 15:40:03 2022
$end
$version
	Icarus Verilog
$end
$timescale
	1ps
$end
$scope module tb $end
$var wire 32 ! n1 [31:0] $end
$var wire 32 " n2 [31:0] $end
$var wire 32 # n3 [31:0] $end
$var wire 32 $ n4 [31:0] $end
$var wire 64 % mul_res2 [63:0] $end
$var wire 64 & mul_res1 [63:0] $end
$var wire 1 ' lt2 $end
$var wire 1 ( lt1 $end
$var reg 16 ) aa [15:0] $end
$var reg 16 * bb [15:0] $end
$var reg 1 + clk $end
$var reg 32 , inst1 [31:0] $end
$var reg 32 - inst2 [31:0] $end
$var reg 32 . inst3 [31:0] $end
$var reg 32 / inst4 [31:0] $end
$var reg 32 0 inst5 [31:0] $end
$var reg 32 1 inst6 [31:0] $end
$var reg 32 2 m1 [31:0] $end
$var reg 32 3 m2 [31:0] $end
$var reg 32 4 m3 [31:0] $end
$var reg 32 5 m4 [31:0] $end
$var reg 64 6 m5 [63:0] $end
$var reg 64 7 m6 [63:0] $end
$var reg 32 8 num1 [31:0] $end
$var reg 32 9 num2 [31:0] $end
$var reg 1 : rst_n $end
$var integer 32 ; i [31:0] $end
$scope module u_top $end
$var wire 1 + clk $end
$var wire 1 < jtag_hold $end
$var wire 32 = m2_addr_i [31:0] $end
$var wire 32 > m2_data_i [31:0] $end
$var wire 1 ? m2_req $end
$var wire 1 @ m2_we_i $end
$var wire 32 A m3_addr_i [31:0] $end
$var wire 32 B m3_data_i [31:0] $end
$var wire 1 C m3_req $end
$var wire 1 D m3_we_i $end
$var wire 1 : rst_n $end
$var wire 32 E s3_data_i [31:0] $end
$var wire 32 F s4_data_i [31:0] $end
$var wire 32 G s5_data_i [31:0] $end
$var wire 1 H uart_hold $end
$var wire 1 I xbus_hold $end
$var wire 1 J timer_int $end
$var wire 1 K s5_we_o $end
$var wire 32 L s5_data_o [31:0] $end
$var wire 32 M s5_addr_o [31:0] $end
$var wire 1 N s4_we_o $end
$var wire 32 O s4_data_o [31:0] $end
$var wire 32 P s4_addr_o [31:0] $end
$var wire 1 Q s3_we_o $end
$var wire 32 R s3_data_o [31:0] $end
$var wire 32 S s3_addr_o [31:0] $end
$var wire 1 T s2_we_o $end
$var wire 32 U s2_data_o [31:0] $end
$var wire 32 V s2_data_i [31:0] $end
$var wire 32 W s2_addr_o [31:0] $end
$var wire 1 X s1_we_o $end
$var wire 32 Y s1_data_o [31:0] $end
$var wire 32 Z s1_data_i [31:0] $end
$var wire 32 [ s1_addr_o [31:0] $end
$var wire 1 \ s0_we_o $end
$var wire 32 ] s0_data_o [31:0] $end
$var wire 32 ^ s0_data_i [31:0] $end
$var wire 32 _ s0_addr_o [31:0] $end
$var wire 32 ` m3_data_o [31:0] $end
$var wire 32 a m2_data_o [31:0] $end
$var wire 32 b m1_data_o [31:0] $end
$var wire 32 c m1_addr_i [31:0] $end
$var wire 1 d m0_we_i $end
$var wire 1 e m0_req $end
$var wire 32 f m0_data_o [31:0] $end
$var wire 32 g m0_data_i [31:0] $end
$var wire 32 h m0_addr_i [31:0] $end
$scope module u_core $end
$var wire 1 + clk $end
$var wire 1 < jtag_hold_i $end
$var wire 1 : rst_n $end
$var wire 1 H uart_hold_i $end
$var wire 1 I xbus_hold_i $end
$var wire 1 J timer_int_i $end
$var wire 32 i rs2_data [31:0] $end
$var wire 5 j rs2_addr [4:0] $end
$var wire 32 k rs1_data [31:0] $end
$var wire 5 l rs1_addr [4:0] $end
$var wire 32 m pc_data_i [31:0] $end
$var wire 32 n pc_addr_o [31:0] $end
$var wire 1 o jump_flag $end
$var wire 32 p jump_addr [31:0] $end
$var wire 1 q intc_hold $end
$var wire 1 r int_assert $end
$var wire 32 s int_addr [31:0] $end
$var wire 32 t inst_addr [31:0] $end
$var wire 32 u inst [31:0] $end
$var wire 32 v id_rs2_data [31:0] $end
$var wire 32 w id_rs1_data [31:0] $end
$var wire 5 x id_rd_addr [4:0] $end
$var wire 32 y id_inst_addr [31:0] $end
$var wire 32 z id_inst [31:0] $end
$var wire 32 { id_ex_rs2_data_o [31:0] $end
$var wire 5 | id_ex_rs2_addr_o [4:0] $end
$var wire 32 } id_ex_rs1_data_o [31:0] $end
$var wire 5 ~ id_ex_rs1_addr_o [4:0] $end
$var wire 5 !" id_ex_rd_addr_o [4:0] $end
$var wire 32 "" id_ex_inst_addr [31:0] $end
$var wire 32 #" id_ex_inst [31:0] $end
$var wire 3 $" hold_flag [2:0] $end
$var wire 1 d ex_we_o $end
$var wire 1 e ex_req_o $end
$var wire 1 %" ex_rd_we $end
$var wire 32 &" ex_rd_data [31:0] $end
$var wire 5 '" ex_rd_addr [4:0] $end
$var wire 1 (" ex_hold_flag $end
$var wire 1 )" ex_hold $end
$var wire 32 *" ex_data_o [31:0] $end
$var wire 32 +" ex_data_i [31:0] $end
$var wire 32 ," ex_addr_o [31:0] $end
$var wire 32 -" csr_mtvec [31:0] $end
$var wire 32 ." csr_mstatus [31:0] $end
$var wire 32 /" csr_mepc [31:0] $end
$var wire 1 0" csr_intc_we $end
$var wire 32 1" csr_intc_wdata [31:0] $end
$var wire 32 2" csr_intc_rdata [31:0] $end
$var wire 12 3" csr_intc_addr [11:0] $end
$var wire 32 4" csr_id_data [31:0] $end
$var wire 12 5" csr_id_addr [11:0] $end
$var wire 1 6" csr_ex_we $end
$var wire 32 7" csr_ex_data [31:0] $end
$var wire 12 8" csr_ex_addr [11:0] $end
$var wire 32 9" csr_data_to_idex [31:0] $end
$var wire 32 :" csr_data_to_ex [31:0] $end
$scope module u_csr_regs $end
$var wire 1 + clk $end
$var wire 32 ;" csr_mepc [31:0] $end
$var wire 32 <" csr_mtvec [31:0] $end
$var wire 1 : rst_n $end
$var wire 32 =" csr_mstatus [31:0] $end
$var wire 1 0" csr_intc_we_i $end
$var wire 32 >" csr_intc_data_i [31:0] $end
$var wire 12 ?" csr_intc_addr_i [11:0] $end
$var wire 12 @" csr_id_addr_i [11:0] $end
$var wire 1 6" csr_ex_we_i $end
$var wire 32 A" csr_ex_data_i [31:0] $end
$var wire 12 B" csr_ex_addr_i [11:0] $end
$var reg 32 C" csr_id_data_o [31:0] $end
$var reg 32 D" csr_intc_data_o [31:0] $end
$var reg 32 E" mcause [31:0] $end
$var reg 32 F" mepc [31:0] $end
$var reg 32 G" mie [31:0] $end
$var reg 32 H" mscratch [31:0] $end
$var reg 32 I" mstatus [31:0] $end
$var reg 32 J" mtvec [31:0] $end
$upscope $end
$scope module u_ctrl $end
$var wire 1 + clk $end
$var wire 1 < jtag_hold_i $end
$var wire 1 : rst_n $end
$var wire 1 H uart_hold_i $end
$var wire 1 I xbus_hold_i $end
$var wire 1 o jump_flag_i $end
$var wire 1 q intc_hold_i $end
$var wire 1 (" ex_hold_i $end
$var reg 3 K" hold_o [2:0] $end
$upscope $end
$scope module u_ex $end
$var wire 1 + clk $end
$var wire 1 (" hold_o $end
$var wire 32 L" il_lw [31:0] $end
$var wire 32 M" jalr_addr [31:0] $end
$var wire 1 o jump_flag_o $end
$var wire 32 N" rs1_and_imm [31:0] $end
$var wire 32 O" rs1_and_rs2 [31:0] $end
$var wire 32 P" rs1_or_imm [31:0] $end
$var wire 32 Q" rs1_or_rs2 [31:0] $end
$var wire 32 R" rs1_siged [31:0] $end
$var wire 32 S" rs1_unsiged [31:0] $end
$var wire 32 T" rs1_xor_imm [31:0] $end
$var wire 32 U" rs1_xor_rs2 [31:0] $end
$var wire 64 V" rs1s_mul_rs2u [63:0] $end
$var wire 32 W" rs2_siged [31:0] $end
$var wire 32 X" rs2_unsiged [31:0] $end
$var wire 1 : rst_n $end
$var wire 32 Y" s_sw [31:0] $end
$var wire 5 Z" zimm [4:0] $end
$var wire 6 [" shamt [5:0] $end
$var wire 32 \" s_sh [31:0] $end
$var wire 32 ]" s_sb [31:0] $end
$var wire 32 ^" s_addr_signed [31:0] $end
$var wire 32 _" s_addr [31:0] $end
$var wire 32 `" rs2_data_i [31:0] $end
$var wire 5 a" rs2_addr_i [4:0] $end
$var wire 5 b" rs2_addr [4:0] $end
$var wire 64 c" rs1u_mul_rs2u [63:0] $end
$var wire 1 d" rs1u_mul_rs2s $end
$var wire 64 e" rs1s_mul_rs2s [63:0] $end
$var wire 32 f" rs1_srli [31:0] $end
$var wire 32 g" rs1_srl_rs2 [31:0] $end
$var wire 32 h" rs1_sri [31:0] $end
$var wire 32 i" rs1_srai [31:0] $end
$var wire 32 j" rs1_sltu_rs2 [31:0] $end
$var wire 32 k" rs1_slt_rs2 [31:0] $end
$var wire 32 l" rs1_slli [31:0] $end
$var wire 32 m" rs1_sll_rs2 [31:0] $end
$var wire 32 n" rs1_plus_rs2 [31:0] $end
$var wire 32 o" rs1_plus_imm_i [31:0] $end
$var wire 32 p" rs1_minus_rs2 [31:0] $end
$var wire 1 q" rs1_lt_imm_unsigned $end
$var wire 1 r" rs1_lt_imm_signed $end
$var wire 32 s" rs1_data_i [31:0] $end
$var wire 5 t" rs1_addr_i [4:0] $end
$var wire 5 u" rs1_addr [4:0] $end
$var wire 5 v" rd_addr_i [4:0] $end
$var wire 5 w" rd_addr [4:0] $end
$var wire 32 x" pc_puls4 [31:0] $end
$var wire 7 y" opcode [6:0] $end
$var wire 32 z" mem_data_i [31:0] $end
$var wire 32 {" mem_addr [31:0] $end
$var wire 32 |" jump_offset [31:0] $end
$var wire 32 }" jump_addr_o [31:0] $end
$var wire 32 ~" jalr_sign_extend [31:0] $end
$var wire 32 !# jal_addr [31:0] $end
$var wire 1 r int_assert_i $end
$var wire 32 "# int_addr_i [31:0] $end
$var wire 32 ## inst_i [31:0] $end
$var wire 32 $# inst_addr_i [31:0] $end
$var wire 32 %# imm_unsigned [31:0] $end
$var wire 20 &# imm_u [19:0] $end
$var wire 32 '# imm_signed [31:0] $end
$var wire 12 (# imm_s [11:0] $end
$var wire 12 )# imm_jalr [11:0] $end
$var wire 20 *# imm_jal [19:0] $end
$var wire 12 +# imm_i [11:0] $end
$var wire 32 ,# il_lhu [31:0] $end
$var wire 32 -# il_lh [31:0] $end
$var wire 32 .# il_lbu [31:0] $end
$var wire 32 /# il_lb [31:0] $end
$var wire 7 0# funct7 [6:0] $end
$var wire 3 1# funct3 [2:0] $end
$var wire 32 2# csr_imm_extend [31:0] $end
$var wire 32 3# csr_data_i [31:0] $end
$var wire 12 4# csr_addr [11:0] $end
$var wire 32 5# bne_jump_addr [31:0] $end
$var wire 1 6# bne_jump $end
$var wire 32 7# bltu_jump_addr [31:0] $end
$var wire 1 8# bltu_jump $end
$var wire 32 9# blt_jump_addr [31:0] $end
$var wire 1 :# blt_jump $end
$var wire 32 ;# bgeu_jump_addr [31:0] $end
$var wire 1 <# bgeu_jump $end
$var wire 32 =# bge_jump_addr [31:0] $end
$var wire 1 ># bge_jump $end
$var wire 32 ?# beq_jump_addr [31:0] $end
$var wire 1 @# beq_jump $end
$var reg 12 A# csr_waddr_o [11:0] $end
$var reg 32 B# csr_wdata_o [31:0] $end
$var reg 1 6" csr_we_o $end
$var reg 1 )" ex_hold_o $end
$var reg 1 C# hold $end
$var reg 32 D# jump_addr [31:0] $end
$var reg 1 E# jump_flag $end
$var reg 32 F# mem_addr_o [31:0] $end
$var reg 32 G# mem_data_o [31:0] $end
$var reg 1 e mem_req_o $end
$var reg 1 d mem_we_o $end
$var reg 5 H# rd_addr_o [4:0] $end
$var reg 32 I# rd_data_o [31:0] $end
$var reg 1 %" rd_we_o $end
$upscope $end
$scope module u_id $end
$var wire 1 + clk $end
$var wire 32 J# csr_data [31:0] $end
$var wire 32 K# csr_data_i [31:0] $end
$var wire 1 : rst_n $end
$var wire 32 L# rs2_data_i [31:0] $end
$var wire 5 M# rs2_addr [4:0] $end
$var wire 32 N# rs1_data_i [31:0] $end
$var wire 5 O# rs1_addr [4:0] $end
$var wire 5 P# rd_addr [4:0] $end
$var wire 7 Q# opcode [6:0] $end
$var wire 32 R# inst_i [31:0] $end
$var wire 32 S# inst_addr_i [31:0] $end
$var wire 3 T# funct3 [2:0] $end
$var wire 12 U# csr_addr [11:0] $end
$var reg 12 V# csr_addr_o [11:0] $end
$var reg 32 W# csr_data_o [31:0] $end
$var reg 32 X# inst_addr_o [31:0] $end
$var reg 32 Y# inst_o [31:0] $end
$var reg 5 Z# rd_addr_o [4:0] $end
$var reg 5 [# rs1_addr_o [4:0] $end
$var reg 32 \# rs1_data_o [31:0] $end
$var reg 5 ]# rs2_addr_o [4:0] $end
$var reg 32 ^# rs2_data_o [31:0] $end
$upscope $end
$scope module u_id_ex $end
$var wire 1 + clk $end
$var wire 32 _# csr_data_i [31:0] $end
$var wire 3 `# hold_flag_i [2:0] $end
$var wire 32 a# inst_addr_i [31:0] $end
$var wire 32 b# inst_i [31:0] $end
$var wire 5 c# rd_addr_i [4:0] $end
$var wire 5 d# rs1_addr_i [4:0] $end
$var wire 32 e# rs1_data_i [31:0] $end
$var wire 5 f# rs2_addr_i [4:0] $end
$var wire 32 g# rs2_data_i [31:0] $end
$var wire 1 : rst_n $end
$var reg 32 h# csr_data_o [31:0] $end
$var reg 32 i# inst_addr_o [31:0] $end
$var reg 32 j# inst_o [31:0] $end
$var reg 5 k# rd_addr_o [4:0] $end
$var reg 5 l# rs1_addr_o [4:0] $end
$var reg 32 m# rs1_data_o [31:0] $end
$var reg 5 n# rs2_addr_o [4:0] $end
$var reg 32 o# rs2_data_o [31:0] $end
$upscope $end
$scope module u_if_id $end
$var wire 1 + clk $end
$var wire 3 p# hold_flag_i [2:0] $end
$var wire 32 q# jump_addr_i [31:0] $end
$var wire 1 : rst_n $end
$var wire 32 r# inst_i [31:0] $end
$var wire 32 s# inst_addr_i [31:0] $end
$var reg 32 t# inst_addr_o [31:0] $end
$var reg 32 u# inst_o [31:0] $end
$upscope $end
$scope module u_intc $end
$var wire 1 + clk $end
$var wire 32 v# csr_data_i [31:0] $end
$var wire 32 w# csr_mepc [31:0] $end
$var wire 32 x# csr_mstatus [31:0] $end
$var wire 32 y# csr_mtvec [31:0] $end
$var wire 32 z# inst_addr_i [31:0] $end
$var wire 32 {# inst_i [31:0] $end
$var wire 1 : rst_n $end
$var wire 1 J int_i $end
$var wire 1 |# global_int_en $end
$var reg 32 }# cause [31:0] $end
$var reg 12 ~# csr_addr_o [11:0] $end
$var reg 32 !$ csr_data_o [31:0] $end
$var reg 5 "$ csr_state [4:0] $end
$var reg 1 0" csr_we_o $end
$var reg 1 q hold_o $end
$var reg 32 #$ int_addr_o [31:0] $end
$var reg 1 r int_assert_o $end
$var reg 4 $$ int_state [3:0] $end
$upscope $end
$scope module u_pc $end
$var wire 1 + clk $end
$var wire 3 %$ hold_flag_i [2:0] $end
$var wire 1 &$ jtag_reset_flag_i $end
$var wire 32 '$ jump_addr_i [31:0] $end
$var wire 1 o jump_flag_i $end
$var wire 1 : rst_n $end
$var reg 32 ($ pc_o [31:0] $end
$upscope $end
$scope module u_regs $end
$var wire 1 + clk $end
$var wire 5 )$ rd_addr_i [4:0] $end
$var wire 32 *$ rd_data_i [31:0] $end
$var wire 1 %" rd_we_i $end
$var wire 5 +$ rs1_addr_i [4:0] $end
$var wire 5 ,$ rs2_addr_i [4:0] $end
$var wire 1 : rst_n $end
$var wire 32 -$ x0 [31:0] $end
$var wire 32 .$ x1 [31:0] $end
$var wire 32 /$ x10 [31:0] $end
$var wire 32 0$ x11 [31:0] $end
$var wire 32 1$ x12 [31:0] $end
$var wire 32 2$ x13 [31:0] $end
$var wire 32 3$ x14 [31:0] $end
$var wire 32 4$ x15 [31:0] $end
$var wire 32 5$ x16 [31:0] $end
$var wire 32 6$ x17 [31:0] $end
$var wire 32 7$ x18 [31:0] $end
$var wire 32 8$ x19 [31:0] $end
$var wire 32 9$ x2 [31:0] $end
$var wire 32 :$ x20 [31:0] $end
$var wire 32 ;$ x21 [31:0] $end
$var wire 32 <$ x22 [31:0] $end
$var wire 32 =$ x23 [31:0] $end
$var wire 32 >$ x24 [31:0] $end
$var wire 32 ?$ x25 [31:0] $end
$var wire 32 @$ x26 [31:0] $end
$var wire 32 A$ x27 [31:0] $end
$var wire 32 B$ x28 [31:0] $end
$var wire 32 C$ x29 [31:0] $end
$var wire 32 D$ x3 [31:0] $end
$var wire 32 E$ x30 [31:0] $end
$var wire 32 F$ x31 [31:0] $end
$var wire 32 G$ x4 [31:0] $end
$var wire 32 H$ x5 [31:0] $end
$var wire 32 I$ x6 [31:0] $end
$var wire 32 J$ x7 [31:0] $end
$var wire 32 K$ x8 [31:0] $end
$var wire 32 L$ x9 [31:0] $end
$var reg 32 M$ rs1_data_o [31:0] $end
$var reg 32 N$ rs2_data_o [31:0] $end
$upscope $end
$upscope $end
$scope module u_ram $end
$var wire 1 + clk $end
$var wire 1 : rst_n $end
$var wire 1 X we_i $end
$var wire 32 O$ data_i [31:0] $end
$var wire 32 P$ addr_i [31:0] $end
$var reg 32 Q$ data_o [31:0] $end
$upscope $end
$scope module u_rom $end
$var wire 1 + clk $end
$var wire 1 : rst_n $end
$var wire 1 \ we_i $end
$var wire 32 R$ data_i [31:0] $end
$var wire 32 S$ addr_i [31:0] $end
$var reg 32 T$ data_o [31:0] $end
$upscope $end
$scope module u_timer $end
$var wire 1 + clk $end
$var wire 1 J int $end
$var wire 1 : rst_n $end
$var wire 1 T we_i $end
$var wire 32 U$ data_i [31:0] $end
$var wire 32 V$ addr_i [31:0] $end
$var reg 32 W$ count [31:0] $end
$var reg 32 X$ ctrl [31:0] $end
$var reg 32 Y$ data_o [31:0] $end
$var reg 32 Z$ value [31:0] $end
$upscope $end
$scope module u_xbus $end
$var wire 1 + clk $end
$var wire 32 [$ m0_addr_i [31:0] $end
$var wire 32 \$ m0_data_i [31:0] $end
$var wire 1 e m0_req $end
$var wire 1 d m0_we_i $end
$var wire 32 ]$ m1_addr_i [31:0] $end
$var wire 32 ^$ m1_data_i [31:0] $end
$var wire 1 _$ m1_req $end
$var wire 1 `$ m1_we_i $end
$var wire 32 a$ m2_addr_i [31:0] $end
$var wire 32 b$ m2_data_i [31:0] $end
$var wire 1 ? m2_req $end
$var wire 1 @ m2_we_i $end
$var wire 32 c$ m3_addr_i [31:0] $end
$var wire 32 d$ m3_data_i [31:0] $end
$var wire 1 C m3_req $end
$var wire 1 D m3_we_i $end
$var wire 1 : rst_n $end
$var wire 32 e$ s0_data_i [31:0] $end
$var wire 32 f$ s1_data_i [31:0] $end
$var wire 32 g$ s2_data_i [31:0] $end
$var wire 32 h$ s3_data_i [31:0] $end
$var wire 32 i$ s4_data_i [31:0] $end
$var wire 32 j$ s5_data_i [31:0] $end
$var reg 4 k$ grant [3:0] $end
$var reg 1 I hold_o $end
$var reg 32 l$ m0_data_o [31:0] $end
$var reg 32 m$ m1_data_o [31:0] $end
$var reg 32 n$ m2_data_o [31:0] $end
$var reg 32 o$ m3_data_o [31:0] $end
$var reg 32 p$ s0_addr_o [31:0] $end
$var reg 32 q$ s0_data_o [31:0] $end
$var reg 1 \ s0_we_o $end
$var reg 32 r$ s1_addr_o [31:0] $end
$var reg 32 s$ s1_data_o [31:0] $end
$var reg 1 X s1_we_o $end
$var reg 32 t$ s2_addr_o [31:0] $end
$var reg 32 u$ s2_data_o [31:0] $end
$var reg 1 T s2_we_o $end
$var reg 32 v$ s3_addr_o [31:0] $end
$var reg 32 w$ s3_data_o [31:0] $end
$var reg 1 Q s3_we_o $end
$var reg 32 x$ s4_addr_o [31:0] $end
$var reg 32 y$ s4_data_o [31:0] $end
$var reg 1 N s4_we_o $end
$var reg 32 z$ s5_addr_o [31:0] $end
$var reg 32 {$ s5_data_o [31:0] $end
$var reg 1 K s5_we_o $end
$upscope $end
$upscope $end
$upscope $end
$enddefinitions $end
#0
$dumpvars
b0 {$
b0 z$
b0 y$
b0 x$
b0 w$
b0 v$
b0 u$
b0 t$
b0 s$
b0 r$
b0 q$
b0 p$
b0 o$
b0 n$
b1 m$
b0 l$
b10 k$
bz j$
bz i$
bz h$
bx g$
bx f$
b10000000000000001000110010111 e$
bz d$
bz c$
bz b$
bz a$
0`$
1_$
b0 ^$
bx ]$
b0 \$
b0 [$
bx Z$
bx Y$
bx X$
bx W$
b0 V$
b0 U$
b10000000000000001000110010111 T$
b0 S$
b0 R$
bx Q$
b0 P$
b0 O$
b0 N$
b0 M$
bx L$
bx K$
bx J$
bx I$
bx H$
bx G$
bx F$
bx E$
bx D$
bx C$
bx B$
bx A$
bx @$
bx ?$
bx >$
bx =$
bx <$
bx ;$
bx :$
bx 9$
bx 8$
bx 7$
bx 6$
bx 5$
bx 4$
bx 3$
bx 2$
bx 1$
bx 0$
bx /$
bx .$
bx -$
b0 ,$
b0 +$
b0 *$
b0 )$
bx ($
bx '$
0&$
b0 %$
b1 $$
bx #$
bx "$
bx !$
bx ~#
bx }#
x|#
bx {#
bx z#
bx y#
bx x#
bx w#
b0 v#
bx u#
bx t#
bx s#
b1 r#
bx q#
b0 p#
bx o#
bx n#
bx m#
bx l#
bx k#
bx j#
bx i#
bx h#
b0 g#
b0 f#
b0 e#
b0 d#
b0 c#
bx b#
bx a#
b0 `#
b0 _#
b0 ^#
b0 ]#
b0 \#
b0 [#
b0 Z#
bx Y#
bx X#
b0 W#
b0 V#
bx U#
bx T#
bx S#
bx R#
bx Q#
bx P#
bx O#
b0 N#
bx M#
b0 L#
b0 K#
b0 J#
b0 I#
b0 H#
b0 G#
b0 F#
0E#
b0 D#
0C#
b0 B#
b0 A#
x@#
bx ?#
x>#
bx =#
x<#
bx ;#
x:#
bx 9#
x8#
bx 7#
x6#
bx 5#
bx 4#
bx 3#
bx 2#
bx 1#
bx 0#
b0 /#
b0 .#
b0 -#
b0 ,#
bx +#
bx *#
bx )#
bx (#
bx '#
bx &#
bx %#
bx $#
bx ##
bx "#
bx !#
bx ~"
bx }"
bx0 |"
bx {"
b0 z"
bx y"
bx x"
bx w"
bx v"
bx u"
bx t"
bx s"
xr"
xq"
bx p"
bx o"
bx n"
bx m"
bx l"
b0x k"
b0x j"
bx i"
bx h"
bx g"
bx f"
bx e"
xd"
bx c"
bx b"
bx a"
bx `"
bx _"
bx ^"
b0xxxxxxxx ]"
b0xxxxxxxxxxxxxxxx \"
bx ["
bx Z"
bx Y"
bx X"
bx W"
bz V"
bx U"
bx T"
bx S"
bx R"
bx Q"
bx P"
bx O"
bx N"
bx0 M"
b0 L"
b0 K"
bx J"
bx I"
bx H"
bx G"
bx F"
bx E"
b0 D"
b0 C"
b0 B"
b0 A"
b0 @"
bx ?"
bx >"
bx ="
bx <"
bx ;"
bx :"
b0 9"
b0 8"
b0 7"
06"
b0 5"
b0 4"
bx 3"
b0 2"
bx 1"
x0"
bx /"
bx ."
bx -"
b0 ,"
b0 +"
b0 *"
x)"
0("
b0 '"
b0 &"
0%"
b0 $"
bx #"
bx ""
bx !"
bx ~
bx }
bx |
bx {
bx z
bx y
b0 x
b0 w
b0 v
bx u
bx t
bx s
xr
xq
bx p
xo
bx n
b1 m
b0 l
b0 k
b0 j
b0 i
b0 h
b0 g
b0 f
0e
0d
bx c
b1 b
b0 a
b0 `
b0 _
b10000000000000001000110010111 ^
b0 ]
0\
b0 [
bx Z
b0 Y
0X
b0 W
bx V
b0 U
0T
b0 S
b0 R
0Q
b0 P
b0 O
0N
b0 M
b0 L
0K
xJ
0I
zH
bz G
bz F
bz E
zD
zC
bz B
bz A
z@
z?
bz >
bz =
z<
b1010 ;
1:
bx 9
bx 8
bx 7
bx 6
b11111111111111111111111111111011 5
b11 4
b11111111111111111111111111111011 3
b11 2
bx 1
bx 0
bx /
bx .
bx -
bx ,
0+
bx *
bx )
x(
x'
b1011111111111111111111111111110001 &
b1111111111111111111111111111111111111111111111111111111111110001 %
bx $
bx #
bx "
bx !
$end
#5000
b0 U#
b0 M#
b0 O#
b0 P#
b0 T#
b1 Q#
b1 z
b1 Y#
b1 b#
b1 {#
b0 \"
b0 ]"
0d"
b0 7#
b0 5#
b0 9#
b0 N"
b0 U"
b0 O"
b0 Q"
0o
b0 p
b0 }"
b0 q#
b0 '$
b1 u
b1 R#
b1 u#
b0 :"
b0 3#
b0 h#
b0 g"
b0 m"
b0 p"
b0 n"
b0 Y"
b0 j"
b0 c"
08#
1<#
b0 X"
b0 k"
b0 e"
1@#
06#
0:#
1>#
b0 W"
b0 {
b0 `"
b0 o#
b0 |
b0 a"
b0 n#
b0 S"
b0 R"
b0 }
b0 s"
b0 m#
b0 ~
b0 t"
b0 l#
b0 !"
b0 v"
b0 k#
b1 "$
00"
b0 3"
b0 ?"
b0 ~#
b0 1"
b0 >"
b0 !$
0r
b0 s
b0 "#
b0 #$
b0 W$
1+
#10000
b0 *
b0 )
b0 Z
b0 Q$
b0 f$
b0 ^
b0 T$
b0 e$
b0 V
b0 Y$
b0 g$
0+
0:
#15000
b0 ?#
b0 =#
b0 ;#
b0 M"
0J
b0 |"
b0 !#
b0 _"
b0 o"
b0 {"
0r"
b0 P"
b0 T"
0q"
b0 h"
0|#
b0 4#
b0 *#
b0 ~"
b0 )#
b0 2#
b0 Z"
b0 &#
b0 ^"
b0 (#
b0 '#
b0 %#
b0 +#
b0 0#
b0 l"
b0 f"
b0 i"
b0 ["
b0 b"
b0 u"
b0 w"
b0 1#
b0 y"
b0 Q#
b0 z
b0 Y#
b0 b#
b0 {#
b0 y
b0 X#
b0 a#
b0 z#
b0 b
b0 m
b0 r#
b0 m$
b0 Z$
b0 X$
b0 }#
b0 H"
b0 ."
b0 ="
b0 I"
b0 x#
b0 G"
b0 /"
b0 ;"
b0 w#
b0 F"
b0 E"
b0 -"
b0 <"
b0 y#
b0 J"
b0 #"
b0 ##
b0 j#
b100 x"
b0 ""
b0 $#
b0 i#
b0 u
b0 R#
b0 u#
b0 t
b0 S#
b0 t#
b0 c
b0 n
b0 s#
b0 ($
b0 ]$
1+
#20000
b10000000000000001000110010111 b
b10000000000000001000110010111 m
b10000000000000001000110010111 r#
b10000000000000001000110010111 m$
bx Z
bx Q$
bx f$
b10000000000000001000110010111 ^
b10000000000000001000110010111 T$
b10000000000000001000110010111 e$
0+
1:
b11111111111111111111111111111011 7
b11111111111111111111111111111011 6
1'
b110 $
1(
b110 "
b110 9
b101 #
b101 !
b101 8
#25000
b10000000000000011000000110010011 ^
b10000000000000011000000110010011 T$
b10000000000000011000000110010011 e$
b11 x
b11 Z#
b11 c#
b100 _
b100 S$
b100 p$
b10000000000000011000000110010011 b
b10000000000000011000000110010011 m
b10000000000000011000000110010011 r#
b10000000000000011000000110010011 m$
b100000000 U#
b11 P#
b1 T#
b10111 Q#
b10000000000000001000110010111 z
b10000000000000001000110010111 Y#
b10000000000000001000110010111 b#
b10000000000000001000110010111 {#
b100 c
b100 n
b100 s#
b100 ($
b100 ]$
b10000000000000001000110010111 u
b10000000000000001000110010111 R#
b10000000000000001000110010111 u#
b1 )
1+
#30000
0+
#35000
b10000000000000001000000000000 w
b10000000000000001000000000000 \#
b10000000000000001000000000000 e#
b100100000010 ?#
b100100000010 =#
b100100000010 ;#
b10000000000000001000000000000 k
b10000000000000001000000000000 N#
b10000000000000001000000000000 M$
b100100000010 |"
b100000000 M"
b100000000 P"
b100000000 T"
b11 l
b11 [#
b11 d#
b11 +$
b10000000000000100000100010111 ^
b10000000000000100000100010111 T$
b10000000000000100000100010111 e$
1%"
b10000000000000001000000000000 &"
b10000000000000001000000000000 I#
b10000000000000001000000000000 *$
b11 '"
b11 H#
b11 )$
b100000000 4#
b1000100000000 !#
b100010000000 *#
b100000000 ~"
b100000000 )#
b10000000000000001 &#
b100000011 _"
b100000011 ^"
b100000011 (#
b100000000 o"
b100000000 {"
1r"
b100000000 '#
1q"
b100000000 %#
b100000000 +#
b1000 0#
b11 w"
b1 1#
b10111 y"
b100000000000 U#
b11 O#
b0 T#
b10011 Q#
b11 x
b11 Z#
b11 c#
b10000000000000011000000110010011 z
b10000000000000011000000110010011 Y#
b10000000000000011000000110010011 b#
b10000000000000011000000110010011 {#
b100 y
b100 X#
b100 a#
b100 z#
b1000 _
b1000 S$
b1000 p$
b10000000000000100000100010111 b
b10000000000000100000100010111 m
b10000000000000100000100010111 r#
b10000000000000100000100010111 m$
b11 !"
b11 v"
b11 k#
b10000000000000001000110010111 #"
b10000000000000001000110010111 ##
b10000000000000001000110010111 j#
b10000000000000011000000110010011 u
b10000000000000011000000110010011 R#
b10000000000000011000000110010011 u#
b100 t
b100 S#
b100 t#
b1000 c
b1000 n
b1000 s#
b1000 ($
b1000 ]$
b10 )
b1 *
1+
#40000
0+
0'
b1000 #
0(
b1000 !
b1000 8
